22

21 23
16
8 1
7 18
11 7
11 13
5 14
20 0
13 22
19 10
2 16
1 5
0 10
18 15
5 2
20 17
18 15
14 13
1 19

10 27
19
9 19
1 22
7 26
1 8
4 5
2 1
8 19
4 6
9 25
5 7
6 23
6 8
8 3
6 22
9 20
6 12
7 18
2 5
6 12
21 7

38 16
1
28 8
46 18

4 38
26
1 22
2 10
3 30
2 6
2 20
1 29
0 1
1 10
2 22
2 5
1 6
3 0
3 21
1 9
2 6
0 8
2 10
0 12
3 14
3 24
1 21
3 12
1 23
1 31
2 28
1 4
43 5

26 12
14
6 10
21 10
22 5
13 7
1 10
8 0
7 3
10 8
6 7
19 1
8 8
19 4
11 11
21 11
50 1

7 20
2
5 1
0 10
39 14

17 9
29
15 0
8 0
6 5
1 1
3 4
8 7
0 4
8 3
7 3
9 2
14 1
13 0
8 7
14 5
6 2
15 4
12 3
6 7
7 6
2 4
15 5
16 3
14 6
14 8
4 1
10 1
16 2
8 6
2 4
38 2

36 26
8
7 25
11 2
18 14
26 13
27 16
6 24
24 3
0 12
41 21

36 12
9
23 6
3 3
3 5
1 9
15 4
14 7
33 11
27 2
8 2
47 10

10 17
18
7 4
5 12
4 4
8 12
7 4
8 4
9 2
8 9
7 6
1 12
0 10
2 12
6 14
8 14
2 2
3 9
4 8
0 14
13 21

21 2
17
19 1
9 1
19 0
7 0
11 0
19 0
20 1
0 1
6 0
6 0
15 1
9 0
8 0
5 0
18 1
17 1
15 1
36 19

30 26
6
21 21
16 1
10 8
26 17
22 24
2 22
31 20

40 6
24
15 5
37 3
38 5
25 4
3 4
30 0
33 5
20 4
30 3
33 0
5 3
10 3
2 0
27 0
1 2
37 0
7 3
11 3
7 1
11 5
13 1
13 4
37 0
21 2
6 7

14 6
6
3 2
7 1
7 4
1 0
12 5
3 0
48 24

31 38
24
24 29
15 34
16 16
6 7
1 30
21 11
19 32
5 11
21 28
6 1
28 34
5 17
21 19
22 27
26 33
20 18
8 33
18 34
7 32
7 37
28 17
30 20
13 23
20 14
47 15

16 26
26
10 10
8 5
14 7
11 1
15 4
1 8
4 3
10 3
13 12
13 7
14 23
0 16
11 10
0 2
8 18
6 20
3 10
13 13
8 5
8 19
8 17
13 20
11 18
2 12
1 11
7 1
49 25

24 31
18
12 9
3 26
4 5
9 15
0 3
7 22
4 11
12 24
20 6
0 0
22 24
3 22
2 18
5 28
7 9
14 1
1 15
7 13
30 19

21 20
8
17 12
20 13
18 3
8 9
4 14
19 16
18 14
13 8
9 21

25 21
18
13 2
24 20
0 8
6 2
2 14
6 14
15 8
0 14
18 13
3 9
10 13
15 12
23 10
5 4
4 6
2 15
8 7
0 15
2 25

36 21
30
1 11
22 8
26 4
35 13
25 2
10 19
15 12
10 0
26 13
11 14
30 8
30 15
27 4
11 16
23 6
25 1
11 14
14 7
20 15
1 12
22 5
10 4
6 9
35 2
6 12
14 3
32 12
15 6
20 9
26 2
24 10

3 25
7
0 22
1 6
1 12
1 7
0 7
2 6
1 8
44 30

36 25
24
33 24
25 17
16 0
23 0
33 22
4 21
7 2
11 21
8 9
29 3
22 20
24 5
23 20
10 7
20 18
32 19
13 1
11 18
23 9
20 18
10 8
8 4
17 5
26 22
25 20
