29

9 13
8
0 3
0 12
2 1
4 3
8 3
2 9
6 5
2 7
14 10

31 31
16
24 19
9 15
5 1
27 14
8 16
1 23
1 9
30 19
21 7
9 0
4 19
28 7
6 13
12 7
15 7
10 9
13 15

22 5
8
15 1
0 1
0 3
14 1
16 0
5 0
19 0
4 2
24 20

42 37
4
10 16
21 33
33 33
34 21
26 18

32 28
11
18 12
22 7
19 21
10 11
12 9
19 19
24 6
13 13
5 22
15 26
1 11
25 11

6 21
9
1 6
0 1
1 11
4 12
5 14
2 16
0 13
1 14
0 9
13 10

42 2
3
5 1
3 1
23 0
13 2

31 28
18
9 12
16 24
9 5
8 1
19 4
27 0
16 27
6 21
25 18
6 6
0 9
29 14
29 5
30 11
4 25
2 5
7 2
7 24
16 11

9 46
1
0 40
8 19

15 45
5
6 15
6 8
12 33
0 19
7 7
5 10

9 33
20
5 26
7 30
5 10
4 25
6 12
6 12
1 7
4 4
3 21
0 18
1 8
7 7
5 28
2 24
4 28
7 26
1 19
2 15
2 20
5 7
3 17

39 13
20
19 7
14 3
17 12
21 12
8 4
3 5
7 8
5 3
14 6
11 3
32 9
31 4
20 8
5 4
14 12
2 7
26 12
10 2
31 4
4 9
21 11

8 7
19
5 4
7 1
4 1
0 4
1 6
4 0
4 6
5 3
4 6
2 0
3 1
5 2
0 4
1 1
4 0
5 0
1 5
1 0
4 5
11 15

32 23
3
22 15
16 10
25 13
14 9

27 18
15
20 6
12 2
16 1
12 8
20 16
14 3
26 0
4 16
19 10
16 1
25 10
6 14
23 3
4 7
6 17
9 12

33 23
8
9 3
22 15
2 12
20 0
4 10
32 0
23 12
14 19
3 4

17 7
8
16 0
6 1
12 3
3 1
5 4
4 6
15 2
14 1
14 8

5 12
7
2 2
2 10
3 10
3 8
0 0
2 8
2 11
13 15

22 19
13
8 11
13 7
4 8
14 11
5 15
13 0
8 11
8 10
0 9
21 10
2 9
7 12
14 15
19 7

33 9
16
5 7
29 0
12 8
29 8
1 6
10 7
20 7
25 1
32 8
19 8
0 0
7 3
22 0
10 7
28 4
3 7
28 11

3 50
19
0 1
2 46
0 7
2 22
0 20
0 31
2 38
2 43
1 23
1 19
0 32
0 40
2 37
1 2
2 40
0 12
0 49
2 27
1 23
21 17

35 36
15
30 16
33 26
26 21
18 27
7 25
9 23
8 2
21 6
28 14
8 18
22 10
20 17
0 22
29 14
28 8
7 10

25 22
8
10 11
4 20
23 4
18 8
23 16
9 4
17 0
9 11
30 8

45 47
8
33 36
41 14
10 9
17 39
2 4
44 14
18 14
11 5
27 6

28 14
17
9 1
27 9
16 13
21 12
1 5
25 4
24 6
23 9
22 5
23 13
24 8
23 11
21 8
16 12
8 0
22 7
27 12
13 16

15 12
20
1 3
7 7
8 11
7 7
10 8
14 10
8 8
13 1
9 0
3 6
9 0
12 8
12 3
7 2
1 3
11 8
9 6
1 0
13 5
9 0
8 11

42 47
15
28 33
16 29
37 34
28 36
10 15
22 45
10 9
13 36
19 26
26 36
33 0
15 32
15 5
19 41
31 30
12 4

2 38
12
0 25
1 16
0 37
1 29
1 17
1 12
1 24
0 32
0 2
0 18
1 25
0 16
24 7

30 36
12
4 4
15 29
1 10
9 15
14 26
23 32
13 29
11 23
22 10
6 32
29 27
10 14
10 20
