*** Life<FredkinCell> 1x1 ***

Generation = 0, Population = 1.
0

*** Life<FredkinCell> 17x12 ***

Generation = 0, Population = 8.
----------0-
------------
------------
------------
------0-----
-----0------
------0-----
--------0---
------------
------------
------------
--------0---
-------0----
------------
------------
--0---------
------------

Generation = 154, Population = 96.
++----+++++-
-------+--++
--+---+--+++
-+-+-+-++--+
-+++--+--++-
-+----+-+---
-+---+-+++-+
-+-++-+---+-
+++-++--+-+-
--++-++-----
--++-----+-+
+---+-+-+++-
-+-+-+-++---
+-++++-++-++
-+--+-+-+-+-
+----+++---+
+++++++++--+

Generation = 308, Population = 70.
+-+-+----+++
---+---+-+--
+--+--++--+-
+---+---+-+-
--+++-+-+---
-+---------+
---+--+++-+-
--+-+---+-+-
+++-++------
---+-+-+-+--
+---+----+++
----+-----+-
+-+-----+-++
-----+------
+--+----+-+-
+-----+-+-+-
++---++-+-+-

*** Life<FredkinCell> 8x14 ***

Generation = 0, Population = 7.
--------------
--------------
-----0--0-----
-------------0
--------------
----------0---
--------0-----
0--------0----

Generation = 154, Population = 58.
-++--++++---+-
+-+--+-+-++++-
+-+-+-++++-++-
+--+--+-++++-+
--+----+-----+
-+-+-+++--++++
-+--+++------+
+--++-+++--+++

*** Life<FredkinCell> 7x13 ***

Generation = 0, Population = 13.
-------------
0------0--000
-----0----0--
------------0
0-----0----0-
-----0-------
---0---------

Generation = 128, Population = 20.
-------------
--+-+--+--+-+
+---++---+---
+-+----------
---++---+-+-+
-----+---+---
-------+---+-

Generation = 256, Population = 21.
-------------
--+++-+++-+-+
-+----+--+--+
--------+-+--
----+--+--++-
-+-------+---
-------+-----

*** Life<FredkinCell> 18x10 ***

Generation = 0, Population = 13.
-----0----
----------
-----0----
------0---
----------
-------00-
-----0----
----------
---------0
----------
----0-----
---0------
0-0----0--
----------
----------
----------
--------0-
----------

Generation = 108, Population = 91.
+-+--+-+-+
+-+-++--++
+-++-+-+-+
------+++-
++++--+++-
-+--+-+++-
--++--++++
+-+--+-+++
--+-+---++
+++-+-++--
+---+++-+-
--+-+-+--+
--+-++--+-
+++-++--++
---+-+-+--
+-+---++--
+-+++--+++
-+-++-----

Generation = 216, Population = 75.
++-+++----
------+---
-+-+++++--
----+-+++-
-+---+----
+---++++-+
+++++-+--+
-+---+----
---+-++--+
+--+++---+
++-+-+-+--
+------+--
+------++-
++---++++-
+--+-+-+--
+-+--+--++
-+-+--+---
--+--+-+++

*** Life<FredkinCell> 20x14 ***

Generation = 0, Population = 20.
--------------
--------------
--------------
0-------------
--------------
------0-------
-----0-----0--
0-------------
-----000------
0---------0---
-----------0--
-------------0
-------0------
-------0------
--------------
--------0-----
--0-----------
--------------
-----0---0----
-------0--0---

*** Life<FredkinCell> 5x8 ***

Generation = 0, Population = 10.
---000--
--------
-----00-
-00----0
----00--

Generation = 74, Population = 26.
9--+7++-
++++9+--
-+++--+0
-+--++++
4---+9++

Generation = 148, Population = 14.
-++--++-
--------
+++-----
--+-+++-
-++---+-

Generation = 222, Population = 23.
--++--+-
+--+++-+
+++-+-+-
++-+--+-
-+++-+++

Generation = 296, Population = 17.
-+++++-+
--------
----+--0
++++++--
--+-+--+

Generation = 370, Population = 18.
--+---++
+-++--++
++------
-++----+
-+++--++

*** Life<FredkinCell> 20x20 ***

Generation = 0, Population = 19.
--------------------
---0-------------0--
0----------------0--
-------------------0
---0----------------
--------------0-----
-------------0------
----------0-------0-
--------------------
--------------------
--------------------
--------------------
---0-----0----------
------0-------------
----------------0---
--0-----------------
---------------0----
--------0-----------
----0----0----------
--------------------

Generation = 94, Population = 184.
--+--+-+-+--+-+--+--
+-+--+----+++-++++--
+-+----+-+++--++++--
---++-++-+++----++++
---+-+---+-+--++-+9-
-++--+-----+-+----+-
++--+++---+-+----+-+
+++++---+-+-++-+++--
---+-+-+--++++9----+
-+-++-+-+---+--++++-
---+--+++---+--+-+-+
+--+-+----+-+----+++
-+-+-+7++-+++--+---+
-++-++++--+-+-++--+-
++-+-+-++--+-+-++++-
+++---+8-2+-+9+--+--
--+-+++-+----+-+--+-
-++++---+--+---++---
-+-++---++-----++-+-
---++---++-+-+----+-

Generation = 188, Population = 159.
----+--+---++-++--+-
---+--+------+----++
--+--+++-+++---+-++-
---+++-----+----+--+
++---+-+-+----++++-+
-----+-+++----+--+--
+-----++--+-+++-----
--+---+--++-+--+----
-+++++---+++----++-+
--+--++--+-+++------
-+++++-++-++---+-++-
+-++--+-+---+++-----
+--+-+-+++-++--+----
-+------+++--++++-+-
+---++++++++-++--++-
+-+----+-------+-+--
--++---++++++--+---+
-++-++--+-+------+--
++-------++-++----++
---++---+-----------

*** Life<FredkinCell> 6x1 ***

Generation = 0, Population = 5.
0
0
0
0
-
0

Generation = 42, Population = 5.
+
+
+
+
-
+

Generation = 84, Population = 5.
+
+
+
+
-
+

Generation = 126, Population = 5.
+
+
+
+
-
+

Generation = 168, Population = 5.
+
+
+
+
-
+

*** Life<FredkinCell> 5x9 ***

Generation = 0, Population = 5.
0----0---
-----0--0
---------
---------
-------0-

Generation = 59, Population = 21.
5+---+8+-
0+----++-
--+--+---
--50--505
-+-54-8-8

Generation = 118, Population = 24.
9+--++-+9
--+++-+-+
-++--+0-9
009-----9
+++--+---

Generation = 177, Population = 17.
-+--++---
-+++--+++
+-+-0----
---0---0-
-++---+--

Generation = 236, Population = 15.
-+---++++
0++-----+
+----+-+-
---------
+--+-+---

*** Life<FredkinCell> 8x6 ***

Generation = 0, Population = 12.
-----0
-00---
00----
--00--
0-----
----0-
--0---
--00--

Generation = 86, Population = 20.
0+-+--
+-+-0-
--++-+
6-+--+
-7----
--+---
----7-
+70+-+

Generation = 172, Population = 25.
---+--
+-+-0+
-+--+-
+-++-+
--+-0+
++-++-
-++---
+-0+++

Generation = 258, Population = 26.
---+++
+-+-0-
----++
----++
+--+-+
++-+++
+-++-+
--0+++

Generation = 344, Population = 22.
-++---
-----+
+-++++
-+----
-+--0-
++++--
+++-++
---++-

*** Life<FredkinCell> 8x9 ***

Generation = 0, Population = 12.
00---00--
---00----
----0----
--00-----
---------
--0------
-----0-0-
---------

Generation = 64, Population = 28.
----+--++
+-+----++
+----+-++
+--+--++-
----+----
+-+-8-+--
+--+9+++-
---++----

Generation = 128, Population = 22.
-----+--+
------++-
+++--+---
--+----++
----++-+-
--+++---+
-+-+-+---
--+------

*** Life<FredkinCell> 14x19 ***

Generation = 0, Population = 16.
--0------0---------
------0------------
------------0------
---0---------------
--------------0----
-------------------
-------------------
--------0----------
--------0----------
-------------------
--0-------0--------
--------------0-0--
--0----------------
---00----0---------

Generation = 3, Population = 108.
---0100-0--110-----
0-01-0---0000------
----000--110-------
0---0110-00-----0--
-0-0-00-0------0-0-
--0-0--010----0-0--
---0--00200--0-0---
--0--01010-0--0----
-0-0-0101-0---0-0--
0---0-00-0--00---0-
---010--00-010----0
--0110--0--01------
-01---00-0--0-----0
-11-3--1--0-00---0-

Generation = 6, Population = 95.
---02311-012-1-1---
1------11---1------
--2-00-004-000-----
--0--12--1---------
0---0-10-0-1------0
---0---1----1-0-0--
0--------1--------0
-01201---01-0---0-0
----0-1---------1--
-00--1002110--0-0--
--0-1-0-1-----0-0--
00044----0-021--0--
2-2---1-0-1---1----
--2-4-1----0-3-0--0

Generation = 9, Population = 129.
--01-3-1---3--1-0-0
--2-----1----010-00
00---0---4---1-000-
----0-2------01-100
-0--0020-1---00020-
--011-12110-1---0--
00-0--0-2-1-----0--
11-332--1-2----030-
10-01-2-110---20-0-
0---12-0-1--00--100
-----0--2--0-0---0-
--0-40--301-222--00
-020-020----002000-
13-3---320-1131-0-0

Generation = 12, Population = 112.
00---3--1-1--1--023
3-31--1--02---4---0
-34-3----5------110
0--21--3-21-0--14--
-02-3-2--2--1----01
--3--2454-1--1--0--
0-3--03---1-311----
2-264332---010----1
-----03-1-0--03-1-0
-2--1-2-32-1-----0-
2-2------0----1----
11-----030-32---23-
------2--1--3---3-2
23-4633-----46-233-

Generation = 15, Population = 127.
010--4-3-32-6-32323
6--411---13-404----
2---4-02-6----3-110
021-2343-3--3-3-5-2
--3---3--51------32
---51-4-5--03-2--0-
---12-4-4--24--201-
--3---4--12--1-1--4
-0--51-3240---61---
1--114-1-2-2--2-3-3
--3-6--2612-2220---
12-4--1--324---0---
4040-0--1-41-0-04--
-64----3--------461

Generation = 18, Population = 78.
0--235-3--2593323--
-04--1-3--4-5-5----
----51----2-21----0
---42-------43--6-2
----5-------3------
--------8-30----0--
1-3----------------
---64-7---2-2---4--
------------1-7---1
-2-2-45-------3----
---------12-3-3----
-2-5-------4-2----2
4------0---23-2-4--
----7554222-4--44--

Generation = 21, Population = 131.
--13---43335+-624--
7----2-6-----1-1--2
3---5------15-30-13
--1-335--------46--
-2-18----5226-3--3-
1-3-1245944143-0---
-04-2----4-2-1-2012
334-73-3--225-5----
--1-51532---208-10-
--0-17---2-3-----0-
-0--7-22---03260-0-
--257--4-3---34024-
-060-2--1-42---0705
-7-6--6-32-4-7-758-

Generation = 24, Population = 92.
-3---53-3---+3---34
+15---2-3--35----1-
6-7---------8-6---4
------6----1-------
--4-9-4-255--------
2--7235-9472-32-1-0
3-5--4------44--0-3
-----4----33-18---5
4----2---4--209----
---24----2-4--3----
------3---4-3-7-3--
2-------------7----
607-2-3---7-3----0-
4869-66---6-57---94

Generation = 27, Population = 133.
1--558---336-6--7-7
+2-9----6--6-292--4
778-722-27-2--7--3-
--27--7--4617----35
2-53-54-----7--24--
524-5-65------3220-
--5-2--375-------13
645--5--22--5--3616
-0-3--74-----3--3-3
33---7+3--5-513--0-
-1-0--4-8-40----423
33--93-64--7---058-
-173-2-1-48----2916
--7+87783-7---1--+5

Generation = 30, Population = 125.
45-55+3-464--774-4+
-35--3--764-6-+5-2-
-890+-3-3-4-9-81-4-
---86-8-3--2-3-674-
------7-3-7---5-4--
---96-6-----7--3--3
-251--4-8------3-23
-55--6--2-77--84--7
40-3-4--5----4-3-04
---3---3348-8--061-
--51-2-29--0-4-0---
--3--417534-45--5+-
-----261---2-2-----
4--+88-+-68---27-+5

Generation = 33, Population = 121.
-666-+--495--88-7-+
--5-3-----5-72+6-25
78---24-3-52-192-4-
-----594-46---8-8-6
-----6824----2-2-4-
--5-7-65+7--7-5-3--
5--1---3+5---6-33--
865-----2-8---9593-
7--4----55-2--+3-0-
5-3-5--344---2--715
----8353-2-0-----2-
---9+----4---6---+2
--+3-37-3--24----1-
4+--98--4--86---8+6

Generation = 36, Population = 111.
-99-7-4--+--+----6+
+-8-4--99-5---+---5
-++-+24--8--+1--358
1-4-------7----79--
437-+---567------43
5--97--5+---8---6--
--8-4---+5--7-4---5
--8-----32-86-9-+-7
7-----7-------+-5-4
-545----75948-6-81-
5---+-5-----5-9-4--
-5---5-777-967+--+-
9---3-8-6-8-----+--
-+-++--+-89-7--+9+-

Generation = 39, Population = 125.
6--98----+69-+---7+
+--+5----8-782----6
9++--2---864------8
-2----9---+-76-----
54--+--35687+36-6-6
--5+84-6+7+-+4-----
84---4--+--48---558
--+997--32997--5+47
70--7--4-6--64+3---
9-5-----+---8-6----
61-1-----2-065--7--
45--+---+8-+98+2++4
-1---3-27----32--17
5+9-+-8+---8-------

Generation = 42, Population = 142.
9-+-9+55--69++9----
+---5-3-+-5-92-----
9++2-25-39---3+2-7+
425-9--565+-8----57
----+-846997+---7-6
-3-+9--6+-+-+-75-2-
+5+1---4+-65--53-69
+9-9--9543+++3+6+77
81448--5---2---460-
--5-8--3-5--9---+-7
72--+-54-360-----34
-85+-54--9---8-2-+-
--+-4-+--6----2-+-8
6-+--+9+---8-97-+--

Generation = 45, Population = 156.
++-9+-86----+--49+-
-59+653++-8+9-+9-4-
-+--+-6-4+--+3+3-8+
---9--+-76-4-7-8+6+
74---7-46++-+--3867
---+--7-+++-+-----4
+--2-4-5+----664579
+-+9+-+-7-+++3+-+78
-475----88--8--4-19
--6799---894+281+3+
8361+55-+-6-7-+-9-4
4--+-6---+5++8-2-+-
-2--5-+29-+2-352+39
7+-+--++---8-+--+--

Generation = 48, Population = 70.
-+---------------+-
+8++--4-----+-+-24-
+---+5------+6----+
----+-+-+7------+--
----+-+---+-------8
7-----8-+--6-------
--+---7---7-----8--
---9--+-8-----+----
9---8---8---9-----+
------+----4--+----
----+----67-----+--
5----78---5--8--+-7
-5------------5--6+
+++---+-8--+9-8--+-

*** Life<FredkinCell> 7x14 ***

Generation = 0, Population = 5.
0-------------
--------------
--------0-----
--0-0---------
--------------
0-------------
--------------

*** Life<FredkinCell> 13x3 ***

Generation = 0, Population = 9.
0--
---
---
--0
---
---
-0-
--0
-0-
---
-0-
---
000

Generation = 101, Population = 17.
---
---
--+
+0+
--+
-0-
+-+
---
+-+
00-
-++
-0-
-6+

Generation = 202, Population = 21.
++-
--+
-++
+-+
--+
---
--+
+-+
+++
---
+++
+-+
+-+

*** Life<FredkinCell> 15x15 ***

Generation = 0, Population = 12.
-------------0-
------------0--
--0------------
0--------------
-------------0-
---------------
------0--------
---------------
-----------00--
-0-------------
---------------
----------0----
------------0--
-0-------------
---------------

*** Life<FredkinCell> 1x3 ***

Generation = 0, Population = 2.
0-0

Generation = 52, Population = 0.
---

Generation = 104, Population = 0.
---

*** Life<FredkinCell> 14x10 ***

Generation = 0, Population = 11.
--0-------
----------
----------
------0-0-
------0---
----------
0-----0---
---------0
----------
----------
-----0----
-----00---
-0--------
----------

Generation = 10, Population = 57.
-----00-0-
----111-0-
-0-0---13-
--316--14-
---0406---
-1-0201-2-
1---1-----
-2-0--0---
-13002-01-
0---1-----
-42---26--
2-33------
-2-117-002
00------2-

Generation = 20, Population = 58.
----464---
-15--43---
-04-31---2
4384-44-7-
7--------2
-------17-
32--633--1
-42---2-4-
4--155-17-
--1-2---41
--4-49-74-
---45--5-5
--2---3--3
5-------51

Generation = 30, Population = 69.
-7--++-4--
4--56-7404
-2--4---73
85--+-57--
-3-578+--4
4---33-4--
9---86----
-4-2558-7-
654--784+5
6-3-----7-
--7-7+--6-
-88+--9-+9
----9-5-29
-3--4-94-1

Generation = 40, Population = 63.
7-7-+++-6-
----99+-4-
-384-5----
+--9-76---
+---+++5-5
-6-6577-+-
----------
------9--6
985--++--7
7-9-7+-7+-
--9---69--
49++-9+++-
--58+--9--
8------8+3

Generation = 50, Population = 66.
++--+-+-9-
-4+8-+---+
-----66--7
-----9-+--
-------788
+--+++--++
+9+---9+93
+-+3-6-8-8
-9-+++---+
-+---+9--6
+---++-+9+
--+-+++-++
+--++-7+--
-6-----++-

Generation = 60, Population = 77.
-+9--++9-8
8----+-+--
+-+-+--4-9
+8+-+--+++
+--9-----+
+9++++-9--
+9+8+-+-+-
-++56--++-
-+5---+9++
+-+8+-+-+-
-9----9-++
6-++--++-+
--+-+--+7-
+7+797+---

Generation = 70, Population = 67.
+-+--++---
+-+-+---++
++-8+--5--
----+--+-+
-+---++9-+
+++--++--+
+----+++--
--+-7++++-
9--+--+++-
++--+---+-
--++---++-
9-+--++--+
++++++----
---9+++--+

Generation = 80, Population = 67.
-+-++-+-+-
---+++++++
-++-+--7--
--+-++++-+
-+-+--+++-
-----+-+++
-++--++--7
-+++--+-+-
---+-+-++-
----+-+-++
-------+-+
+-++++-++-
-++++--+-+
+-------++

Generation = 90, Population = 62.
---+---+-+
+-+--++---
+-++---8+-
+--+++--++
+--+-+----
+-++--++--
-+-+--+-++
--+--+----
+-++++----
+--+---+-+
--+-+++--+
+---+-+-++
+---++-+++
-++---++--

Generation = 100, Population = 73.
+----++-+-
+-+-+---++
-+++++----
+++-+-----
++-+-++---
+++--++--+
+++---+-++
+--+---+-+
-+-+++-++-
+++-++-+--
+++-+---+-
+-++++----
++-+++-++-
---++-+-++

Generation = 110, Population = 64.
++-+--++--
--+----+-+
+--++++---
--+----+-+
-+-+++---+
+--+--+-++
--+-+-++-+
--++-+++-+
++----+---
++----+++-
---+-+-+++
+----+--+-
+++-++--++
---+--+++-

Generation = 120, Population = 74.
--+++-----
++--++++++
-++---++++
--+-+++--+
++-+++-+++
+--+--+++-
-+-+---+--
------++-+
-++-+--+++
+-+-+-+-++
+---+--++-
+-+++--+++
+-+-+---++
++-+--++--

Generation = 130, Population = 67.
-----++---
--+-++----
-++++--++-
+-+++-++--
+-++-++---
--+-+--+--
+-+-+-+---
---+--++-+
++++-+---+
-++++++--+
--+--++--+
+--+-+-++-
-+--++-+++
-++---++++

Generation = 140, Population = 67.
-++-+++++-
-++--++---
+++++-+++-
+-++--+--+
+-----+++-
+-+---+-++
+-+++-+--+
-+--+-+---
-++-+-+-+-
+++---+-+-
---+++-++-
---+--+-+-
+--+-+----
++--+---+-

Generation = 150, Population = 71.
-+++++-+++
++++-+++++
++----+++-
++--+-++--
+-++++-+--
-+-----+++
--------++
--+-++--+-
-+-++++---
+++++--++-
----+++---
----+++--+
-+-++++---
-----++++-

Generation = 160, Population = 60.
-----++---
--+-++----
-+-+++----
---+++--+-
--+-++-+++
--+-+--+--
----+---+-
-+----+---
-++-+++++-
-+-++-++++
-+++--++-+
++--++-++-
-++++--+--
--+---+-+-

*** Life<FredkinCell> 17x14 ***

Generation = 0, Population = 7.
--------------
--------------
--------------
--------------
--------------
------------0-
--------------
--------0--0--
--------------
--0-----------
--0-----------
--------------
-------------0
--------------
------0-------
--------------
--------------

Generation = 126, Population = 107.
-+++++-+-+-+--
+8---++-+7-++-
+--+-+-+-+---+
+-+-+-+-++-+-+
+---++-+---+--
++---++9--+++-
--+------+----
--+-++++-++++-
-----+-------+
+8+----+++-+++
---+---+-+-+-+
--+++----+-+--
-+--++-+--+--+
----+++----++-
--++--+++---+-
------+++-++++
----+++++++--+

Generation = 252, Population = 105.
--++++--+++-+-
--+---+-+-+---
++-+------++-+
+--+--+---+-++
+--+++-+-+++--
+---+-+-+-----
-+-+--+-+-++++
----+-++-++-+-
++----+---+++-
--+---+-----+-
+--++++-++----
-++++++----+--
++-+--+-++-++-
--+-+-------+-
+--+-+-+-++++-
--+-++-+---+++
++----+-+--++-

*** Life<FredkinCell> 2x18 ***

Generation = 0, Population = 6.
00-----0----------
-----0-0---0------

Generation = 164, Population = 13.
--+++--++++-+-+++-
-------+-----+----

*** Life<FredkinCell> 17x3 ***

Generation = 0, Population = 13.
-0-
---
0--
0--
0--
-00
---
---
---
0--
-0-
--0
--0
---
0--
---
-00

*** Life<FredkinCell> 10x17 ***

Generation = 0, Population = 9.
---0-------------
-----------------
-----------------
---0-----------0-
--0------0-------
------0----------
---------0-------
-0---------------
-----------------
-0---------------

Generation = 48, Population = 54.
2-----89-+-+-----
---8-+5+---6-----
---9-6-----------
-+---+--7--+97---
-+---+-8+5---+6--
-+-9++-----+---++
-+-6---6----5+--4
-+---+---+-4-----
--8--+-----9-+-+-
-58+---+-97+-----

Generation = 96, Population = 69.
-------+-+-----+-
-+----++---+---+-
9++--+++-----+---
+-+--+++-+5+--++-
+++-+-+-+-+--++--
+-+-+++---++--+-+
+-+++-+---+--+---
--+---++-++--+-+-
--++-+---+-+-+---
-+-+-+---+---+-+-

*** Life<FredkinCell> 8x7 ***

Generation = 0, Population = 10.
--0----
0------
-------
--0---0
--0---0
-------
0----0-
--00---

*** Life<FredkinCell> 19x7 ***

Generation = 0, Population = 11.
----0--
-------
-----0-
-------
0------
-----0-
--0----
-------
-------
-0-----
---0---
-------
-------
-------
-------
00-----
--0----
-------
-0-----

Generation = 17, Population = 52.
-3-1---
-30----
2-2----
---1---
16--2--
23-1---
23-0---
772----
5--2-4-
2-0-1-0
-3---1-
4--0-2-
-62---0
4-1331-
-5-1-2-
--6----
-0-----
2-1--50
-3--132

Generation = 34, Population = 51.
--534--
-------
74-----
-5---6-
2---3--
55-----
----59+
+-61---
+55--87
5+-----
568-4--
-----4-
++52-7-
5+-5---
+8-----
++92-3-
---0---
48-3---
-6-3-+-

Generation = 51, Population = 64.
7+--7--
-+04---
---1-7-
---2-80
--66--4
-+8---0
+9----+
+--2--4
+-7-2++
7--+6-0
8--4-+0
++62-6-
++---+-
---8-40
+-7---+
++-3---
-----76
6--45+0
-885-+-

Generation = 68, Population = 38.
+--5--6
-+-----
-8---+-
++-----
-+---8-
-+-----
-+----+
-++-+6-
++---++
-+---+-
-------
++-----
-+--8+-
-+---5-
+----++
-------
+--0---
-------
-+--++-

Generation = 85, Population = 64.
-++---7
6-070+-
+----+-
+-9-0+-
--9+8-6
+-++---
+-9-+++
-++4+8-
+-----+
++---+0
---6---
-+--0+-
+-+-9+0
---++-0
+++-6-+
-++-+-6
+-6--+-
++-7---
-------

Generation = 102, Population = 62.
-++8---
---8---
+---++-
-------
-+++--8
---+---
-+-4+++
-+---9-
---8-++
++-+---
--+-+--
+-+4---
+++5+--
+-8++8-
+-++-++
+++-+-8
+---+++
-+1-++-
--+-+++

Generation = 119, Population = 68.
+-++++-
--0--+0
+-+--++
+++-0--
------+
+-+++--
-++-+++
-++5+-+
+-+--++
-++-++-
-+--++-
---5-+0
-++-+-0
--9---0
-+++9-+
+++---+
----+++
++-+---
+-----+

Generation = 136, Population = 20.
--+----
-------
-+-----
-------
-+-+---
-+-----
--+----
++-----
--+----
-----+-
+------
-------
---6-+-
-+-----
----+--
-------
--+-+--
-----+-
+----+-

Generation = 153, Population = 54.
---+-+-
---+0-0
--+-++-
+--6-+-
----+-+
----++-
++-6-+-
++-----
+----+-
-++-++-
+-+-+-0
+----+-
+++--+-
++--+-0
++---+-
+++----
+------
+-1+---
-++-+--

Generation = 170, Population = 53.
++-+---
-------
+-+----
-----+-
+-++++-
---+---
+++7-++
-+---+-
++--6++
---+---
-+++++-
-+-----
--+-+--
++-----
++-++++
+-+7---
--+0-++
++-----
-+--+--

Generation = 187, Population = 60.
+-+--+-
+---0--
+-+1---
+++8-+-
+++---+
-----+-
+-+-+--
-+----+
-++----
-+++-+-
++++-+0
+++---0
+-----0
+++-+-0
-++--++
+--8--+
----+-+
---+--0
--+--++

Generation = 204, Population = 38.
---+-++
-+---+-
-------
++-----
-+--++-
-+---+-
-+-8-++
-++-++-
++---+-
-----+-
----+--
-------
-+---+-
-----+-
-+-+-+-
-++-++-
+8-0---
-------
-------

Generation = 221, Population = 66.
-+--+++
++--0-0
+-+-+++
-+--0+-
---+---
---+-+0
--+--++
---9-++
-+---+-
+-+-+-0
+--+-+-
+++----
+--9-+-
-++++-0
+++----
-+++++-
+9--++-
----++-
+-+++++

Generation = 238, Population = 65.
--+++--
++-+---
++-1-++
+-++---
-----++
+-++++-
+--++--
+-+-+++
+++-9--
+-+-++-
+---+-0
+-+9---
+-+--+-
++-----
-++--++
-+---+-
--+-+++
-------
+++++++

Generation = 255, Population = 76.
-+++-+-
++0+--0
+++-+--
---+-+0
++--+++
+-++++-
+-+-+--
+--++--
---+-+-
+--++-0
-++-+--
++++0+0
+++-+-0
-+--+-0
---++-+
-++++-+
++-0--+
+--+++0
+-+--+-

Generation = 272, Population = 20.
--+----
-+---+-
+--1---
-------
-----+-
-------
----+--
++-----
--+-+--
-------
-+---+-
-------
++-----
-----+-
-------
++-----
-------
-+-----
---+---

Generation = 289, Population = 54.
-+---+-
-+0+0-0
+---++-
+----+-
++----+
++-+++-
-----+-
--+----
---+---
++---+0
+++-++0
---+---
+----+0
-+++-+0
+--+---
++-----
++-----
---+-+0
--+--++

Generation = 306, Population = 52.
+++-+--
-------
-++----
-+-----
--++-+-
++-+---
+++++--
++++-+-
--+-+--
++-+---
+--+-+-
-+---+-
++-+++-
---+---
---++++
-+---+-
--+--++
---+---
---+++-

Generation = 323, Population = 68.
-++-++-
++0+0--
+-+--+-
+++---0
++-+---
-++--+0
-++-+-+
++-+---
++--+++
+++-++0
-++----
---+-+0
-+---+0
++++++-
++---+-
-+----+
----++-
+---++-
-+-+--+

Generation = 340, Population = 28.
+----+-
-----+-
-+---+-
-------
----+--
-----+-
---+-+-
-------
------+
-+-----
----+--
++-----
----+--
-+-----
++-+--+
-++-++-
-+-----
-------
-+--++-

Generation = 357, Population = 66.
--+-++-
-+0+-+0
--+-+-+
+++----
--+-+-+
+-+--+0
+---+--
-++-+-+
++---++
-++-++-
+----+-
+-+-0+-
--+++-0
-++----
----+-+
---+-++
-++-+--
++-+++-
+-+++++

Generation = 374, Population = 69.
-+--+--
++-----
-+-1+-+
+-++---
-+++-+-
+-+-++-
++---++
+++-+-+
+++++++
-+++++-
+-+---0
-------
-+-+++-
-+++++-
++-+---
+-+-+++
+-+----
-+1-++-
++-+---

*** Life<FredkinCell> 8x1 ***

Generation = 0, Population = 8.
0
0
0
0
0
0
0
0

*** Life<FredkinCell> 3x11 ***

Generation = 0, Population = 13.
0--00-000--
0------0-0-
-0------000

Generation = 89, Population = 20.
--++10-+-0-
-+++-++++-+
+++--0+---+

Generation = 178, Population = 17.
---+--3++--
----+++++++
++--+---+++

Generation = 267, Population = 15.
--+----+--0
++----++-+-
+++0+-+--+-

*** Life<FredkinCell> 12x2 ***

Generation = 0, Population = 6.
-0
-0
--
-0
--
--
--
--
--
00
--
-0

Generation = 183, Population = 12.
0-
--
0-
-+
--
-+
--
-+
0+
++
0+
-+

