28

10 19
13
3 5
5 13
0 8
6 18
4 17
5 4
5 13
3 12
3 15
0 16
1 0
7 1
5 12
19 5

14 10
20
13 8
11 7
0 6
4 6
11 6
9 8
2 2
2 3
10 4
10 6
13 9
10 0
5 4
12 2
11 8
1 7
6 9
1 7
13 5
10 6
20 1

20 19
12
6 3
11 9
1 8
4 3
2 14
15 4
1 7
14 3
0 9
2 3
2 18
17 4
6 1

10 15
13
4 14
6 6
0 9
2 14
6 6
7 12
5 4
2 5
7 1
4 0
7 3
1 6
7 11
3 3

18 14
13
4 3
12 9
0 8
15 10
10 9
3 6
15 10
10 5
0 6
3 4
15 5
17 12
15 9
19 3

10 15
11
5 6
4 3
5 4
1 12
8 4
0 2
3 14
3 3
7 6
4 2
7 0
6 2

20 12
19
5 4
12 6
4 9
12 9
10 4
3 1
6 2
10 6
16 10
19 2
19 9
18 11
7 7
6 10
8 7
8 10
13 7
9 5
17 7
7 1

20 10
10
13 1
3 6
19 8
5 4
2 2
10 8
7 5
16 7
12 0
17 9
10 4

11 18
20
4 16
10 0
5 2
2 5
9 0
10 14
1 0
3 17
4 7
9 15
7 1
0 2
1 7
6 8
7 10
7 13
1 3
9 16
7 14
0 16
1 3

16 19
13
4 14
12 4
12 1
13 5
10 14
14 13
13 14
4 3
9 6
1 4
1 0
13 11
12 15
2 2

12 16
13
7 12
9 8
3 1
3 10
5 14
2 8
9 1
5 11
3 2
8 10
8 0
3 4
1 0
12 4

19 19
18
2 11
17 2
10 12
5 4
17 11
17 16
8 7
1 2
8 0
0 1
11 17
4 7
13 17
12 1
18 16
14 13
2 4
3 18
15 1

17 12
10
7 5
4 0
2 11
1 6
8 9
0 7
4 3
14 4
4 1
12 2
15 1

19 13
18
1 1
16 2
15 4
11 6
8 9
15 11
17 9
5 9
8 10
1 1
17 7
15 7
18 12
18 6
4 11
3 5
14 7
8 7
19 3

19 20
18
12 2
12 15
15 2
6 17
6 7
2 8
16 6
2 19
5 19
5 10
8 11
11 2
10 14
5 11
9 13
15 5
16 6
0 1
12 4

10 16
13
6 7
3 7
5 11
5 6
9 6
7 5
4 1
1 13
8 10
8 11
8 8
1 11
2 13
2 4

20 11
17
7 0
10 7
9 3
0 2
2 3
7 5
3 3
0 6
6 5
11 1
18 10
9 5
3 3
12 4
11 7
12 8
0 9
13 2

11 16
14
5 1
5 11
3 5
9 9
8 15
10 11
10 1
4 9
7 15
10 14
2 12
4 10
1 10
1 11
16 3

17 12
11
0 11
15 11
16 10
10 10
16 1
11 6
12 0
1 11
2 5
0 10
0 5
15 2

13 18
12
2 11
8 17
8 9
7 13
1 5
9 15
12 2
2 1
12 14
8 1
3 14
8 15
12 4

16 11
19
3 8
4 5
14 10
12 8
1 3
15 9
7 9
4 9
4 4
6 0
7 3
14 4
15 6
4 6
11 5
12 1
12 7
3 0
6 3
12 1

17 12
19
4 10
2 5
4 0
3 8
8 3
15 8
3 3
9 0
2 6
7 11
14 0
0 3
2 9
2 1
10 9
3 8
0 2
12 10
11 2
12 2

10 20
16
6 1
7 2
6 14
7 10
8 3
6 0
3 15
6 3
4 1
3 1
0 0
1 7
1 9
3 3
3 17
9 7
20 2

14 16
20
0 13
2 8
9 4
4 7
2 10
9 1
13 5
10 2
10 8
4 6
10 1
13 2
8 1
0 0
5 8
0 15
12 5
6 14
7 9
7 3
6 1

12 19
19
0 15
11 11
10 4
10 13
2 6
11 13
1 15
3 13
3 10
9 0
3 6
3 10
9 6
1 16
4 12
6 17
9 13
4 7
10 17
15 1

17 18
18
8 10
14 4
12 13
2 13
2 8
0 8
9 1
2 14
10 16
13 6
0 3
16 2
13 16
4 13
6 14
3 16
2 15
12 15
5 1

16 13
15
1 1
9 2
4 5
9 3
6 10
14 7
9 12
2 7
13 0
3 10
5 10
7 0
14 8
7 4
11 3
7 3

14 19
20
0 5
5 13
3 18
5 7
8 5
3 4
10 8
8 14
5 15
12 17
7 18
4 2
0 14
0 0
8 9
0 12
6 18
3 6
4 7
1 3
9 4
