29

11 14
22
2 3
8 4
6 6
2 7
7 12
5 3
10 5
1 13
7 12
6 7
2 1
7 11
10 11
6 5
9 4
5 11
0 8
4 2
8 13
3 1
1 2
9 7
137 16

15 7
7
11 2
14 1
11 3
12 1
5 4
6 6
9 1
126 6

4 8
20
1 4
2 2
2 2
1 7
1 5
2 1
3 0
2 1
2 2
0 4
0 0
1 4
0 5
1 2
2 7
0 3
3 6
3 6
0 4
1 7
2 9

6 5
7
0 3
5 4
4 1
4 4
4 3
4 2
1 1
97 2

3 20
6
2 6
1 11
2 6
2 18
2 18
1 19
131 3

18 8
24
9 6
4 6
9 2
10 7
11 2
13 1
0 6
3 1
8 7
4 6
2 2
14 3
15 1
16 5
5 6
16 6
1 7
7 0
0 6
1 4
10 1
5 5
14 1
13 0
49 2

2 18
3
0 6
0 2
1 0
20 3

5 12
24
2 6
0 3
1 9
3 7
4 1
3 3
4 7
2 6
0 10
4 10
0 2
2 3
4 6
4 1
4 11
1 4
2 8
1 6
3 2
2 9
1 4
1 7
2 3
0 5
149 2

11 12
9
7 2
9 1
0 9
7 5
5 3
8 2
0 3
8 3
8 10
8 9

12 18
10
4 7
6 4
8 11
3 6
0 0
0 13
0 17
1 5
10 16
7 14
59 16

6 11
18
0 7
3 1
4 9
0 1
2 9
3 10
4 0
1 6
3 0
0 10
4 5
2 6
4 8
2 3
5 8
2 2
0 6
0 1
121 8

3 13
13
0 3
2 5
1 6
2 8
1 7
0 4
1 4
0 4
1 10
0 0
0 4
1 1
1 6
102 6

3 17
13
2 16
0 11
0 13
0 15
2 5
1 8
2 15
1 1
2 9
1 3
2 3
1 12
0 7
88 6

7 3
8
2 0
5 2
6 1
5 0
5 0
6 1
0 2
1 0
131 3

19 1
24
5 0
18 0
8 0
18 0
6 0
7 0
10 0
16 0
7 0
2 0
6 0
11 0
15 0
14 0
0 0
4 0
14 0
3 0
1 0
13 0
15 0
8 0
16 0
14 0
136 15

9 15
19
5 12
3 10
7 0
3 11
2 7
1 9
2 2
4 2
3 3
0 9
8 12
7 12
8 12
5 9
6 3
2 10
2 2
7 14
5 7
24 14

14 13
10
8 10
3 1
1 11
2 11
7 11
2 12
4 2
6 6
12 6
2 11
88 11

19 11
15
8 4
10 10
6 5
12 9
14 7
9 6
11 4
17 10
17 5
10 8
13 6
15 1
10 4
12 2
5 1
33 2

10 18
29
8 5
8 15
9 16
8 5
6 8
6 8
8 7
4 10
4 13
5 7
2 4
9 12
1 17
6 5
5 10
4 6
6 6
4 7
6 5
6 15
7 17
9 10
8 12
6 8
9 1
6 6
6 3
7 16
6 2
146 17

18 12
10
3 9
17 11
16 2
1 6
10 10
4 6
15 3
12 3
2 1
14 4
134 2

14 4
5
4 3
7 3
11 3
0 1
7 0
35 5

13 7
12
12 1
2 0
3 4
1 1
2 4
10 5
9 6
1 2
11 2
0 3
9 4
12 0
92 19

3 12
5
1 11
2 5
1 7
2 0
0 5
107 12

15 14
21
5 11
11 3
0 5
6 12
1 0
0 1
0 2
1 4
13 1
7 2
0 3
11 7
5 4
10 9
13 7
5 9
13 5
8 3
2 4
11 3
9 3
107 1

4 5
16
2 3
2 2
0 2
2 3
3 0
3 4
0 3
1 3
3 0
3 1
1 3
1 3
0 2
1 3
3 1
1 4
39 19

1 9
2
0 0
0 6
108 14

19 6
28
0 4
6 5
17 4
8 0
18 2
15 4
17 4
2 0
12 4
6 3
15 0
11 0
17 1
12 0
15 5
5 5
9 0
18 3
13 2
4 0
7 5
17 1
10 2
12 1
0 3
10 0
2 2
10 5
111 6

1 8
3
0 7
0 3
0 2
110 5

12 13
6
11 9
10 0
2 6
5 10
6 6
0 1
80 3
