26

14 7
24
5 5
8 3
5 0
3 2
5 1
11 4
11 3
3 2
3 0
6 6
4 0
6 6
7 3
8 2
0 0
8 1
2 3
12 0
5 5
4 3
13 2
0 0
4 5
6 1
9 1

12 15
4
9 4
8 12
5 6
10 13
6 1

4 17
24
1 14
3 10
3 14
2 10
1 0
3 6
3 10
1 15
3 0
2 7
0 11
2 14
0 7
0 4
1 11
1 8
0 8
2 1
1 11
0 5
0 0
0 2
2 6
3 7
9 1

17 14
11
3 2
12 13
1 10
10 0
7 9
6 7
11 5
13 4
3 4
5 7
11 13
42 2

16 15
19
4 1
13 4
8 13
3 7
4 6
15 12
0 0
7 1
2 13
3 6
1 8
5 8
9 1
12 10
6 3
4 6
7 13
6 9
2 13
7 1

13 2
5
2 1
6 0
8 1
10 0
6 0
13 1

12 17
11
1 4
4 14
6 11
2 2
4 0
10 10
10 15
4 0
8 3
11 5
0 7
25 2

9 9
18
6 5
7 6
0 3
8 4
1 1
2 0
0 0
8 4
0 5
0 8
6 3
6 6
4 6
7 0
0 6
7 2
3 7
4 1
12 1

9 7
9
0 4
2 1
2 1
7 2
3 0
4 5
0 6
4 0
8 6
48 2

2 19
13
0 11
0 18
0 8
1 13
0 13
0 16
1 8
0 10
0 5
1 5
0 8
0 4
1 7
36 2

2 12
15
0 7
0 11
1 5
1 5
1 10
0 5
1 9
1 8
0 9
0 7
1 5
1 8
1 7
1 7
0 10
33 2

16 17
3
10 8
8 4
12 10
35 2

13 14
11
3 13
5 10
5 0
2 10
6 3
2 8
7 10
6 13
2 10
2 7
7 4
21 1

12 5
14
11 2
4 0
0 2
10 1
9 1
11 0
5 3
9 4
5 3
4 2
2 1
6 4
2 3
9 3
20 1

10 15
25
0 2
4 0
4 1
2 12
6 2
0 6
9 5
6 12
6 5
4 11
2 12
6 12
6 8
8 12
6 3
0 8
9 0
3 2
9 9
5 7
6 6
9 11
1 9
8 4
6 7
42 2

6 16
8
5 13
4 10
0 12
2 8
5 13
1 12
2 15
3 0
49 2

5 5
5
3 2
1 4
3 0
4 2
3 0
37 2

4 4
19
0 3
1 0
1 0
3 1
1 2
0 3
0 3
2 1
3 1
1 2
1 3
1 1
3 3
1 0
1 0
0 3
2 1
0 2
1 2
42 2

11 3
21
7 0
8 0
4 1
2 0
9 2
4 1
3 1
2 2
5 2
4 2
4 0
3 1
10 1
10 1
8 1
10 1
1 2
4 1
6 0
7 1
5 1
4 1

14 5
21
0 0
3 2
0 0
13 3
6 2
6 3
3 4
11 0
12 2
13 1
4 0
13 3
3 1
8 0
4 4
6 1
7 1
13 3
10 1
2 0
7 1
6 1

9 2
1
8 0
27 2

18 13
18
16 3
7 7
3 12
2 10
10 3
12 7
14 3
9 1
8 2
5 12
14 7
16 4
4 7
11 9
4 4
6 3
14 0
7 4
36 2

9 19
5
6 10
5 14
3 15
5 8
3 10
14 1

15 19
16
3 2
3 10
7 13
8 16
0 13
8 14
1 1
13 3
10 16
9 3
1 11
9 17
9 1
13 7
6 16
3 16
3 1

10 11
22
4 10
8 0
1 5
7 9
3 2
4 2
9 9
3 7
5 2
4 6
8 9
3 6
7 9
5 6
2 6
1 1
9 10
1 6
3 4
9 5
0 10
5 3
22 1

9 15
7
2 4
7 12
2 5
8 2
0 3
6 3
8 3
44 2
