*** Life<Cell> 10x9 ***

Generation = 0, Population = 9.
--------0
---------
---------
0--------
----0----
---------
-0-0-----
---0-----
---0-----
--00-----

Generation = 4, Population = 26.
------0--
---------
-0-1----0
--*01----
1--1-----
--0.-----
-*--.0-0-
1-10---0-
---*1--0-
*-*1*-10-

Generation = 8, Population = 39.
10-0-----
-10------
10*.0*---
11.*..*-0
1*-*110--
---.*-1*-
1.*..---0
1-.0*-10-
1--.-1-00
*...*0.--

*** Life<Cell> 12x13 ***

Generation = 0, Population = 27.
-----0--00---
-----00------
000----------
--0----00-0--
-------------
--0---0------
-0-0---------
0---------0--
0--0---0--0--
------------0
---0--------0
--------0--0-

*** Life<Cell> 8x9 ***

Generation = 0, Population = 13.
--0----0-
--0--0---
----0--0-
------0--
---0-----
-0-------
---0-0---
0--0-----

*** Life<Cell> 10x9 ***

Generation = 0, Population = 7.
-------0-
---------
------0--
---------
--------0
-----0---
--0------
---------
0--------
--0------

Generation = 2, Population = 18.
-----010-
---------
----0--1-
-----0---
--0-----0
---0---0-
----0---0
--1--0---
0--------
1-0-0----

Generation = 4, Population = 22.
---0--1*1
-----1---
-------11
---------
0---0-00-
-00------
0--------
--1------
*-0-1---0
*----10--

*** Life<Cell> 14x13 ***

Generation = 0, Population = 9.
-------------
-------------
-------------
-------------
--0----------
---------0---
-----------0-
-------------
0-0----------
------0------
-------------
----0--------
---0---------
--0----------

Generation = 1, Population = 24.
-------------
-------------
-------------
--0----------
-0-0-----0---
--0-----0-00-
---------00-0
0-0--------0-
---0--0------
0-0--0-0-----
----0-0------
-----0-------
-------------
-0-----------

*** Life<Cell> 10x12 ***

Generation = 0, Population = 16.
--00-0---0--
--0--0---0--
------------
--------0--0
-0----------
0---------0-
------------
---------0--
-0----------
----0-----0-

Generation = 4, Population = 30.
0----*00-.-0
-1*---0---01
--.0-*---1--
----1--1----
--10-----1--
-----00--1--
------------
----01--1-1-
-0---0------
------0-*1--

*** Life<Cell> 12x14 ***

Generation = 0, Population = 15.
--------------
-0------0---0-
--0---0---0---
--------------
-0---0--------
--------------
--------------
------0-------
--------------
----0---------
--0----0-----0
-----0----0---

Generation = 3, Population = 76.
-0---010-0-0--
00--0-*0--0-0-
1-000---0--0*0
-*---00--00010
---0-0-1-0-00-
-00---1---0---
0-0-0---0-----
-00--0---0---0
-010-00---0-0-
00*0-*00------
-00--*00----0-
0-01*--*10-0--

*** Life<Cell> 12x13 ***

Generation = 0, Population = 31.
-000---------
--0---0----0-
--0--------0-
--------0----
--0------0-00
----0-0-0-0--
-------------
------0------
-----000-0--0
-----0-00--0-
-------0--0--
--0------0---

Generation = 1, Population = 57.
01110-0----0-
-----0-0--010
-010--0-0-010
-------0----0
-0-00-0-0-011
--00-----0--0
----0---0-0--
------1--0--0
----0-1-0-0--
----01011----
--0--001-----
-0-0---00----

Generation = 2, Population = 64.
1---10-----1-
0--------0---
01-10------*1
--0-0-0-0--0-
0-0-1--0-01-*
--1-0-0-0-0-1
--0--000---0-
-----0*00-00-
---010-010-00
--00-*-*-00--
------1*0----
0-0-00--10---

Generation = 3, Population = 78.
*1-1*10--00-0
---0-0--0-0-0
-*1*-00-000**
--10---0---10
-----00--1-1*
00--101--010*
-010----0-01-
--00-1.--011-
-----111*---1
-01-0*0.--1-0
0--000*.-00--
----11---10--

Generation = 4, Population = 66.
.*--.*10-1--1
0---0-001--1-
0**.--10--1..
----0-0----*1
0000----0*1*.
1---*1-0--*-.
--*---00--1*-
-----*.001*--
-0-0-**-*---*
-1*0-.1.1-*-1
---1--..0-100
0-------1--0-

*** Life<Cell> 14x9 ***

Generation = 0, Population = 11.
---------
---0-----
-0-------
---------
-----0--0
---------
---------
0-0------
-----0---
---0----0
---------
-------0-
---------
---0-----

Generation = 3, Population = 71.
010--0---
0*00010-0
-00*-100-
-00-0000-
--0100*-1
-0----00-
0--00--01
-01*10--1
000*-0-10
1-*-0--*1
000-0--0-
----0100-
-0-0---00
0-------0

Generation = 6, Population = 53.
-*----10-
0*11-----
--0.-.-10
--1-1-000
--0-..*--
----1-010
--001---*
-0.**1---
-10.1-1-1
--.-.*0.-
-01----10
--0--*1-*
---1---1-
0010-101-

Generation = 9, Population = 54.
-*1--..-0
*...0*-1-
*11.-.--1
0-1--0-.1
-01.....*
0-0-.1-*-
--*1.-00*
0.***.*1-
**-.*1.--
11.-*.1.1
*.*--0-*-
--.--..-*
0--.-10.1
.--1-.0-1

*** Life<Cell> 7x7 ***

Generation = 0, Population = 11.
-0---0-
-------
-0--0--
00-0---
0------
-00----
------0

Generation = 1, Population = 20.
0-0-0-0
----00-
-10--0-
-------
1000---
-110--0
-00--0-

Generation = 2, Population = 23.
----10-
00-0---
0*10-10
0--0-0-
*11-0-0
-*--0--
0---0--

Generation = 3, Population = 30.
00--*10
--01--0
1.-1--1
-001010
***010-
0.-0-00
---010-

Generation = 4, Population = 18.
11--*--
--1----
-.1----
0-1-1*-
*..-*10
1.---11
0-0----

Generation = 5, Population = 21.
**-0.1-
0-*10--
1.-101-
1-*--.-
*..0.--
-.1----
1--0-00

Generation = 6, Population = 22.
**01.-0
-0.--0-
-.1-1*1
--*11.-
..*-.--
-*-0-11
-0---11

*** Life<Cell> 12x10 ***

Generation = 0, Population = 26.
---------0
----------
---00-----
-------0--
---0--00--
--0-------
0--0----0-
---0--000-
0--0--0---
----0-----
0-0--0----
00---0---0

Generation = 2, Population = 52.
---00--0--
-------0--
-01*-1-1-0
--0--0---0
00-------0
1--10-1-1-
-10--010--
-01---0-01
01-*0-----
0010-0-000
*-0-0-10--
-*0-1*----

Generation = 4, Population = 52.
----*11---
--1-------
--..-.-.-*
------1*10
0-0---*0--
*--**-.---
0--10*-**-
0*1010--**
-.-**-*---
-**--0--0*
*0-1*1*-01
-.00-*0-00

Generation = 6, Population = 66.
--1-.-**00
0-1---1001
01**1.-*-.
1--0-*1*--
--0011*0--
*10.*0*-*-
0-0.0.1*.-
-*-0--10.*
-.-**-.---
1**1--1-0*
*001.1*-**
-**--.--00

Generation = 8, Population = 46.
-1**.-***0
*-----10*1
--.**.1.-.
.----..*-0
--0**-.--1
.-*..-.0*-
*1-.*.**.1
0.*---1-**
-*0..1.---
1..*01.--.
.---*..-..
-..-1.-10-

Generation = 10, Population = 51.
0****-.*.-
.-*-1-.**1
-1.*....1*
.---0*..--
1--*.**-0*
*1...-*0*-
*.-......*
-..**-.-..
1.-...*0--
-****-*00.
.00-.**1..
-..1..1*-1

Generation = 12, Population = 44.
-.***-..*-
.-.-.1.*.-
*-.....*-.
*----*.*1-
*--**..1-.
..*..1*0.1
**1....**.
1.*..-.1*.
1.1*..*-0-
-..****--.
.--*.*.**.
-..-..-.1-

*** Life<Cell> 13x12 ***

Generation = 0, Population = 34.
--000-0--0--
----0--0---0
----0--0----
0--0--------
---0-----0--
-----0-----0
--0-0---0---
---0--------
--0--00-----
-------0-0--
-0-0-000----
------------
-00--00-----

Generation = 1, Population = 72.
-01-----0-00
--0--0-1000-
0---10010--0
-001---0-0--
0-0100--0-00
--00--0-000-
-0-0---0-0-0
--0--00-0---
-0--011--0--
-000--01--0-
0----1--00--
--00---0----
01100110----

Generation = 2, Population = 63.
01-0-0--10-1
0-10-10----0
----*1---0--
011-0--1----
-01--1--1--1
0--1---0-1-0
0--1000--10-
-0-----0-0-0
010-1**-----
---1-0-*-0-0
----0--011--
-------1-0--
1-*1----0---

Generation = 3, Population = 84.
-*11-1-0*1-*
10*-0*110-01
-0--.--10-00
1*--100--0-0
0-----00--0*
1--*----0*01
1-0---100*10
01-0--0--10-
1*10**.0----
00---10*01--
------01-*00
0-000-0*-10-
--.*0-------

Generation = 4, Population = 66.
-.**0*0-.*0*
*-.01*--10-*
0---.-0--0-1
-*11*--1----
---10--1-0-.
-0-.0--0-.-*
-0-1-0--1.--
1--1--10----
*.-1...1--0-
---1--1.---0
-0000-1*1.11
--11---*----
1-*.-110-00-

Generation = 5, Population = 80.
0.*.1.10**-*
.0*-*.11*10*
1-0-.----1-*
-*-**0-*0--0
----110---0.
110.1-01-.0.
-1-*0--0-.-0
*-0-0-*---0-
..1-*..*00--
00---1*.0-01
011-1--.*.*-
0-*--00.-1-0
--**0*---110

Generation = 6, Population = 84.
-.*.*.-1..0*
*1*-..-*.--*
--1-.10-0*0*
-*1*.-0*1--1
0-1-**-1101*
**1.-0--0.1*
1*-.10111.1-
.111--*00---
*.*-*...1100
--0-0**.-1-*
1*---1-.*..1
10.-0-1.-*-1
11**-*--0---

Generation = 7, Population = 73.
0.**..1*..1*
.-*0.*-*.10.
10--.*---*-*
-.-..0-.*00-
1--1**0---*.
..-.1--1-.*.
-.0.*1***.*-
.-**0-.11--0
...1*...-*--
--1--.**0*0*
-.--1*1***.-
*1.----*0*-*
-***0*-0---0

Generation = 8, Population = 65.
-****.****-*
*-.-.*1*.--.
*1-0.*01-.-*
-*-..--.*1--
-01*..1-1-**
..1.-00*-.**
-.1..-....*-
.1*.1-.-----
...-***.1.--
-0---...1.-.
1*10***....-
*-.1---.1*-.
-***-.-1-111

Generation = 9, Population = 69.
-****...*.-.
*1.-..-..1-.
*---**1--.0.
-.-**0-.**--
1-**.**1*0.*
..-.111*-...
-.-..1*...*-
.**.*-.-1-0-
.**1**.**.--
-1-1-...*.-.
-.-1**.***.-
*1.--01***-.
-***0.1-0--*

*** Life<Cell> 14x15 ***

Generation = 0, Population = 43.
---0-------0---
-0---0-0----0-0
---0-----------
------0---0--0-
0-0---0----0---
00---0---------
-0------0---0--
---------------
-000------0-0--
----0-----0-0-0
00--------0----
0---00------0--
--------0-0-0--
00--------0----

Generation = 3, Population = 105.
0-0-0*-001--010
0-000111-10-1-0
---10--0-0-0000
*0-0----000----
1*1*--1-0---*--
1-1--0110-1-01-
1.--0000-01--01
-10---0--0*01--
0.0.-1--0----0*
*--0-*1-----.00
-.-0-0-00--0-0-
1--*.--1-01-*00
-*----101-*-.--
*.---1-0*-.00-0

Generation = 6, Population = 93.
.-.--.00----11-
*0-1-.-*-.1*1-0
-1-.1-11-1--.01
*-*1-1.*0..1--*
....*-.-1-1*.1-
**.---1*1*.---1
*.00*--00-.---.
-.-*0---1-.-.--
..*.*.0*--*---.
.01.-*.-1--*.--
-**-0*--10-1*0*
*0-.*1*-0*-*.*-
-.*---*11*.-.*0
*.--01*0*-***--

Generation = 9, Population = 88.
.1.--.*---*1*.0
.1-*1.**1...*-.
0.-**-..----.-*
.-..--..1...***
.....-*-1*..*--
.***0-..-.*0--*
.**...1-*-.*1-.
1**..*.*.-.-*1-
.*....-.-0*1--.
*-.*-..1.--.*1-
1**00.-0*1-*.-.
.-0*...*1.**..1
**..-*..1..0*.*
.****1**.****--

*** Life<Cell> 13x12 ***

Generation = 0, Population = 31.
-0--0-------
----0-0----0
-00---0-0---
-----------0
0-----------
----0-------
------0---0-
----00---0--
----0----00-
0-0-0--0-00-
-00--------0
------------
--------0--0

Generation = 4, Population = 60.
--0.*-------
0-1-.0.-.*00
1***--*0----
----11.1----
-*0-1----00-
--0---.10*00
--1-----1--1
*0---*--1.--
-----01.--*-
--11-1.-*-1-
**---0-1*1*0
--.-01---0--
-*0----1-***

*** Life<Cell> 11x10 ***

Generation = 0, Population = 15.
0--0------
-----0----
-----00-00
--0---0---
--------0-
----------
------0---
-0-----00-
----------
-----0----
----------

Generation = 2, Population = 34.
-110--0-00
--01--00--
0---1-0--*
0----0--0-
-----01-01
-00---101-
----0-----
---0--0--1
------0---
-0-0----0-
----------

*** Life<Cell> 10x11 ***

Generation = 0, Population = 18.
-----------
-------0---
-----------
--0--00----
0--0-0-0---
-0-0-------
-0-------0-
---0--0----
----0---0--
0---0------

Generation = 2, Population = 30.
-----------
--0---1--0-
0--0-1-1---
11------0--
0-0*---0---
-*0--------
1---00--1--
0--0-1--1--
-00------10
---1*------

Generation = 4, Population = 41.
0--0-0-0---
-1-----0---
-0-------1-
**00-----10
--0*---000-
-.0-11-----
*-------.1-
*---1.11.-1
---1*1-0-.*
010*.10-0--

*** Life<Cell> 15x13 ***

Generation = 0, Population = 7.
-------------
-------------
-0-----------
---0---------
------0------
-------------
----------0--
-------------
-0-----------
-------------
-------------
-------0-----
-------------
-------------
0------------

Generation = 4, Population = 25.
-0----0------
-------------
-1-.-0----0--
-.-----0-----
-*1-------0--
-------------
-0----0-----0
---1---0-----
-0---00------
-------------
1---------0--
---0-------0-
01-----------
-------------
--0-0--------

Generation = 8, Population = 33.
---*------0--
0-1----------
0...--..-1---
0..-0.-1---0-
-..1--------0
1-10---------
--..----0----
-*-----------
*----1.--1---
-------------
-0-----------
-1-1---0---0-
1.1---0------
-1-----------
-1----0-0-0--

*** Life<Cell> 15x8 ***

Generation = 0, Population = 18.
-0------
-0-0----
--------
------00
--------
-------0
--0-----
------0-
0-000-0-
--------
--------
-0------
-0---0-0
----0---
--------

Generation = 1, Population = 49.
0100----
01--0---
-0-0--00
-----011
------0-
--0---0-
-0-0--00
0--00010
--1-1-10
0-000-0-
-0------
010--0-0
010-----
-0-0---0
----0---

*** Life<Cell> 9x15 ***

Generation = 0, Population = 19.
--------0---00-
----0----------
-----0---------
----0----------
---0-----------
-------0------0
-----0------0--
0--0--000------
-0---------0-0-

Generation = 2, Population = 53.
-----00-0--1**1
--0-0-0--------
-------00---00-
--0-0-00------0
-0---0------0--
0--1011010--1-0
-0-----0--01-11
001-1-*0*10---0
-0-1-0---0--0--

Generation = 4, Population = 48.
---00*--01-****
0---0--00---001
-0---0--*1---*-
---0--*0-------
-0-----01--1*--
---.0.----00.--
-----1--11-*-..
*-.-1-.-.*001--
-*-1---1-*--01-

Generation = 6, Population = 62.
--1-*.---*-....
0--0-1**-1-0-01
-0-10001..1--*0
00--1-.0-101110
-0---10-.--1.-0
0--.-*-*1-***0-
---0--1-*10*-..
.-.-1-.*..0-101
-.---0--0.000.1

Generation = 8, Population = 52.
11--**-11.1....
--0*1-..1.1---1
-----*-*...-1**
*---*-.--.-.-.*
-*-0-1*-.1--.1-
-0-*1*-.1**.**1
---00110.1-.-*.
.-.--0**..--1--
-.---01-0.0--..

Generation = 10, Population = 51.
**--**-.-**....
-0-.--...**1--.
1--**.1...*-..*
.100.-.*-.-.-.*
-*--0-.1.*-1*.*
1*-.*.-...*...*
--10*1*0*.-.-..
.0*---*.**-*1-1
-.----1-0.--1..

*** Life<Cell> 15x9 ***

Generation = 0, Population = 10.
---0-----
---------
-------0-
---------
---0-----
---------
---------
-----0--0
---------
0-0------
-----0---
---------
0--------
------0--
---------

Generation = 1, Population = 34.
--0-0----
---0---0-
------0-0
---0---0-
--0-0----
---0-----
-----0--0
----0-00-
0-0--0--0
---0-0---
0-0-0-0--
0----0---
-0----0--
0----0-0-
------0--

Generation = 2, Population = 34.
-0-0-0-0-
---------
-----0---
---------
-0---0-0-
-----0--0
---0-----
0-00--110
-----1---
--0-01--0
1--0---0-
1-0---0--
0-0--0---
----0---0
0--------

Generation = 3, Population = 52.
0-------0
-0-0---0-
----0-0--
-0-----0-
0-0-01---
-0-0010--
0--10000-
--1-0-*-1
0--0-*-0-
00-01-0--
*00--0---
--1------
1-10----0
--00---0-
-0--0---0

Generation = 4, Population = 28.
---0-----
---------
-------0-
-----0--0
---0---0-
0-0------
-----1-1-
-0--1-.--
1--1-.---
1-0-*----
*1-------
-----0--0
--*-0----
0-----0-0
0----0---

Generation = 5, Population = 47.
--0-0----
---0---0-
-----00--
---00-00-
0---010--
-----1---
000-----0
--1---.1-
*---0.---
-0-0.1---
**--00--0
101---00-
10.---0--
100-0----
10--0---0

Generation = 6, Population = 54.
-0-0-0-0-
-----0--0
-----1-0-
0-01--110
-0---*---
-00--*--0
1--1-1---
--*01-.--
.-0--.-0-
11--.*0-0
..--1----
*-*00--1-
*1.-001--
*-1-100-0
---010-0-

Generation = 7, Population = 79.
0----1---
-0-00-00-
0-000*010
-01*00**1
-1000*-0-
--1-0*00-
--0*0*0-0
00*1*-.1-
.-1-0*---
**--.*10-
*.0-*-000
*0*-1---0
**.-11--0
*0-0*--0-
1--1*-0--

Generation = 8, Population = 33.
---0---0-
0-0------
-----.---
---.--..-
0--1-.---
----1.1--
1-1.-.---
1-.*.0.--
.0*1-.---
*.0-..*--
..1-*0-1-
.1*---0--
...-**1-1
.---.----
*-0-*----

Generation = 9, Population = 44.
0---0-0-0
-------0-
0-0--.---
0--.--..-
-10--.0--
--1--.-0-
*--*0*0--
*-.**-.--
*1.-0.0--
..--***--
..--.1--0
.**0-01-0
...0.*---
.-1-*00-0
.---.0---

Generation = 10, Population = 51.
-0-0---0-
--0-0----
1--0-.-1-
1--.--..-
-*-1-.---
0-*-1.1-0
.0-.1*1--
*-*..-*--
**.--.10-
..-0*.*00
..10.-011
..*--1*-1
.*.1..1--
.0-0.-1--
.-0-*1--0
